{
    "products": [
        {
            "id": 0,
            "photo": "",
            "code": 4263,
            "name": "կանացի սպորտային կոշիկ՝ կաշվից",
            "price": 32000,
            "sale_price": 12000,
            "rating": 4,
            "status": {
                "title": "առկա է պահեստում",
                "value": "instock"
            },
            "weight": 500,
            "dimensions": {
                "length": 12,
                "width": 22,
                "height": 33
            },
            "categories": [
                {
                    "id": 2,
                    "name": "Բոթասներ",
                    "slug": "բոթասներ"
                },
                {
                    "id": 3,
                    "name": "Կանացի բոթասներ",
                    "slug": "կանացի-բոթասներ"
                }
            ],
            "description": {
                "location": [
                    {
                        "id": 1,
                        "name": "Արտադրված է Հայաստանում"
                    }
                ],
                "material": [
                    {
                        "id": 2,
                        "name": "Կաշվե"
                    }
                ],
                "color": [
                    {
                        "id": 1,
                        "name": "Դեղին"
                    },
                    {
                        "id": 4,
                        "name": "Կարմիր"
                    },
                    {
                        "id": 5,
                        "name": "Մոխրագույն"
                    },
                    {
                        "id": 7,
                        "name": "Սև"
                    },
                    {
                        "id": 8,
                        "name": "Սպիտակ"
                    }
                ],
                "size": [
                    {
                        "id": 1,
                        "name": "34"
                    },
                    {
                        "id": 2,
                        "name": "35"
                    },
                    {
                        "id": 3,
                        "name": "35+"
                    },
                    {
                        "id": 4,
                        "name": "36"
                    },
                    {
                        "id": 5,
                        "name": "37"
                    },
                    {
                        "id": 6,
                        "name": "38"
                    },
                    {
                        "id": 7,
                        "name": "39"
                    },
                    {
                        "id": 8,
                        "name": "40"
                    },
                    {
                        "id": 9,
                        "name": "41"
                    },
                    {
                        "id": 10,
                        "name": "42"
                    },
                    {
                        "id": 11,
                        "name": "43"
                    }
                ]
            },
            "photos": [],
            "review": 2,
            "sm_pictures": [],
            "slug": "beige-metal-hoop-tote-bag",
            "new": null
        },
        {
            "id": 1,
            "photo": "",
            "code": 3564,
            "name": "կանացի սպորտային կոշիկ՝ կաշվից",
            "price": 24000,
            "sale_price": 12000,
            "rating": 5,
            "status": {
                "title": "առկա չէ պահեստում",
                "value": "outofstock"
            },
            "weight": 700,
            "dimensions": {
                "length": 12,
                "width": 22,
                "height": 33
            },
            "categories": [
                {
                    "id": 2,
                    "name": "Բոթասներ",
                    "slug": "բոթասներ"
                },
                {
                    "id": 3,
                    "name": "Կանացի բոթասներ",
                    "slug": "կանացի-բոթասներ"
                }
            ],
            "description": {
                "location": [
                    {
                        "id": 1,
                        "name": "Արտադրված է Հայաստանում"
                    }
                ],
                "material": [
                    {
                        "id": 1,
                        "name": "Դեռմանտին Ամերիկա"
                    }
                ],
                "color": [
                    {
                        "id": 1,
                        "name": "Դեղին"
                    },
                    {
                        "id": 2,
                        "name": "Կանաչ"
                    },
                    {
                        "id": 5,
                        "name": "Մոխրագույն"
                    },
                    {
                        "id": 7,
                        "name": "Սև"
                    },
                    {
                        "id": 8,
                        "name": "Սպիտակ"
                    }
                ],
                "size": [
                    {
                        "id": 1,
                        "name": "34"
                    },
                    {
                        "id": 3,
                        "name": "35+"
                    },
                    {
                        "id": 4,
                        "name": "36"
                    },
                    {
                        "id": 6,
                        "name": "38"
                    },
                    {
                        "id": 7,
                        "name": "39"
                    },
                    {
                        "id": 8,
                        "name": "40"
                    },
                    {
                        "id": 10,
                        "name": "42"
                    },
                    {
                        "id": 11,
                        "name": "43"
                    }
                ]
            },
            "photos": [],
            "review": 1,
            "sm_pictures": [],
            "slug": "new-iamghe",
            "new": ""
        }
    ],
    "posts": [
        {
            "id": 1,
            "author": "John Doe",
            "comments": "0",
            "content": "Sed pretium, ligula sollicitudin laoreet viverra, tortor libero sodales leo, eget blandit nunc tortor eu nibh. Suspendisse potenti. Sed egestas ... ",
            "date": "2020-09-22",
            "slug": "cras-ornare-tristique-elit.",
            "title": "Cras ornare tristique elit.",
            "type": "image",
            "blog_categories": [
                {
                    "name": "Lifestyle",
                    "slug": "lifestyle"
                },
                {
                    "name": "Shopping",
                    "slug": "shopping"
                }
            ],
            "image": [
                {
                    "width": "400",
                    "height": "250",
                    "url": "/uploads/post_1_182459676d.jpg"
                }
            ]
        },
        {
            "id": 2,
            "author": "John Doe",
            "comments": "3",
            "content": "Morbi purus libero, faucibus commodo quis, gravida id, est. Vestibulum volutpat, lacus a ultrices sagittis, mi neque euismod dui ... ",
            "date": "2020-09-20",
            "slug": "facilisis-aliquam-porttitor-mauris-sit-amet-orci.",
            "title": "Facilisis aliquam porttitor mauris sit  amet orci.",
            "type": "video",
            "blog_categories": [
                {
                    "name": "Lifestyle",
                    "slug": "lifestyle"
                }
            ],
            "image": [
                {
                    "width": "400",
                    "height": "250",
                    "url": "/uploads/post_2_8738d9e4c3.jpg"
                }
            ]
        },
        {
            "id": 3,
            "author": "John Doe",
            "comments": "0",
            "content": "Phasellus hendrerit. Pellentesque aliquet nibh nec urna. In nisi neque, aliquet vel, dapibus id, mattis vel, nisi. Sed pretium, ligula sollicitudin laoreet viverra, tortor libero sodales leo, eget blandit nunc tortor eu nibh ... ",
            "date": "2020-09-22",
            "slug": "sed-adipiscing-ornare.",
            "title": "Sed adipiscing ornare.",
            "type": "image",
            "blog_categories": [
                {
                    "name": "Lifestyle",
                    "slug": "lifestyle"
                },
                {
                    "name": "Shopping",
                    "slug": "shopping"
                }
            ],
            "image": [
                {
                    "width": "873",
                    "height": "420",
                    "url": "/uploads/post_1_b9361c0eac.jpg"
                }
            ]
        },
        {
            "id": 4,
            "author": "John Doe",
            "comments": "0",
            "content": "Pellentesque aliquet nibh nec urna. In nisi neque, aliquet vel, dapibus id, mattis vel, nisi. Sed pretium, ligula sollicitudin laoreet viverra, tortor libero sodales leo, eget blandit nunc tortor eu nibh ... ",
            "date": "2020-09-22",
            "slug": "aliquam-tincidunt-mauris.",
            "title": "Aliquam tincidunt mauris.",
            "type": "image",
            "blog_categories": [
                {
                    "name": "Lifestyle",
                    "slug": "lifestyle"
                },
                {
                    "name": "Shopping",
                    "slug": "shopping"
                }
            ],
            "image": [
                {
                    "width": "873",
                    "height": "420",
                    "url": "/uploads/post_2_12c1976f85.jpg"
                }
            ]
        },
        {
            "id": 5,
            "author": "Jane Doe",
            "comments": "0",
            "content": "Phasellus hendrerit. Pellentesque aliquet nibh nec urna. In nisi neque, aliquet vel, dapibus id, mattis vel, nisi. Sed pretium, ligula sollicitudin laoreet viverra, tortor libero sodales leo, eget blandit nunc tortor eu nibh ... ",
            "date": "2020-09-20",
            "slug": "sed-adipiscing-ornare-cont.",
            "title": "Sed adipiscing ornare cont.",
            "type": "image",
            "blog_categories": [
                {
                    "name": "Lifestyle",
                    "slug": "lifestyle"
                }
            ],
            "image": [
                {
                    "width": "370",
                    "height": "270",
                    "url": "/uploads/post_1_099679c552.jpg"
                }
            ]
        },
        {
            "id": 6,
            "author": "Jane Doe",
            "comments": "0",
            "content": "Pellentesque aliquet nibh nec urna. In nisi neque, aliquet vel, dapibus id, mattis vel, nisi. Sed pretium, ligula sollicitudin laoreet viverra, tortor libero sodales leo, eget blandit nunc tortor eu nibh ... ",
            "date": "2020-09-22",
            "slug": "aliquam-tincidunt-mauris-sas.",
            "title": "Aliquam tincidunt mauris sas.",
            "type": "image",
            "blog_categories": [
                {
                    "name": "Lifestyle",
                    "slug": "lifestyle"
                }
            ],
            "image": [
                {
                    "width": "370",
                    "height": "270",
                    "url": "/uploads/post_2_a010e34831.jpg"
                }
            ]
        },
        {
            "id": 7,
            "author": "Jane Doe",
            "comments": "0",
            "content": "Sed pretium, ligula sollicitudin laoreet viverra tortor libero sodales leo, eget blandit nunc tortor eu nibh. Nullam mollis ... ",
            "date": "2020-09-22",
            "slug": "nunc-dignissim-risus.",
            "title": "Nunc dignissim risus.",
            "type": "image",
            "blog_categories": [
                {
                    "name": "Lifestyle",
                    "slug": "lifestyle"
                }
            ],
            "image": [
                {
                    "width": "370",
                    "height": "270",
                    "url": "/uploads/post_3_cd64e1fb1b.jpg"
                }
            ]
        },
        {
            "id": 8,
            "author": "Jane Doe",
            "comments": "0",
            "content": "Phasellus hendrerit. Pellentesque aliquet nibh nec urna. In nisi neque, aliquet vel, dapibus id... ",
            "date": "2020-09-22",
            "slug": "sed-adipiscing-ornare-asde.",
            "title": "Sed adipiscing ornare asde.",
            "type": "image",
            "blog_categories": [
                {
                    "name": "Lifestyle",
                    "slug": "lifestyle"
                }
            ],
            "image": [
                {
                    "width": "270",
                    "height": "180",
                    "url": "/uploads/post_1_3abf3aadc6.jpg"
                }
            ]
        },
        {
            "id": 9,
            "author": "Jane Doe",
            "comments": "0",
            "content": "Sed pretium, ligula sollicitudin laoreet viverra, tortor libero sodales leo, eget blandit nunc... ",
            "date": "2020-09-22",
            "slug": "aliquam-tincidunt-maurisuily.",
            "title": "Aliquam tincidunt maurisuily.",
            "type": "image",
            "blog_categories": [
                {
                    "name": "Lifestyle",
                    "slug": "lifestyle"
                }
            ],
            "image": [
                {
                    "width": "270",
                    "height": "180",
                    "url": "/uploads/post_2_48d32d3258.jpg"
                }
            ]
        },
        {
            "id": 10,
            "author": "Jane Doe",
            "comments": "0",
            "content": "Pellentesque aliquet nibh nec urna. In nisi neque, aliquet vel, dapibus id, mattis vel, nisi... ",
            "date": "2020-09-22",
            "slug": "nunc-dignissim-risuwefwes.",
            "title": "Nunc dignissim risuwefwes.",
            "type": "image",
            "blog_categories": [
                {
                    "name": "Lifestyle",
                    "slug": "lifestyle"
                }
            ],
            "image": [
                {
                    "width": "270",
                    "height": "180",
                    "url": "/uploads/post_3_c6080036a7.jpg"
                }
            ]
        },
        {
            "id": 11,
            "author": "Jane Doe",
            "comments": "0",
            "content": "Sed egestas, ante et vulputate volutpat, eros pede semper est, vitae luctus metus libero ...",
            "date": "2020-09-22",
            "slug": "quisque-a-lectus.",
            "title": "Quisque a lectus.",
            "type": "image",
            "blog_categories": [
                {
                    "name": "Lifestyle",
                    "slug": "lifestyle"
                }
            ],
            "image": [
                {
                    "width": "270",
                    "height": "180",
                    "url": "/uploads/post_4_d834f6e75a.jpg"
                }
            ]
        },
        {
            "id": 12,
            "author": "Jane Doe",
            "comments": "2",
            "content": null,
            "date": "2020-09-22",
            "slug": "cras-ornare-tristique-eli-asdf.",
            "title": "Cras ornare tristique eli asdf.",
            "type": "image",
            "blog_categories": [
                {
                    "name": "Lifestyle",
                    "slug": "lifestyle"
                },
                {
                    "name": "Shopping",
                    "slug": "shopping"
                }
            ],
            "image": [
                {
                    "width": "376",
                    "height": "400",
                    "url": "/uploads/post_1_dd454ab04c.jpg"
                }
            ]
        },
        {
            "id": 13,
            "author": "Jane Doe",
            "comments": "0",
            "content": null,
            "date": "2020-09-22",
            "slug": "vivamus-vestibulum-ntulla-necante.",
            "title": "Vivamus vestibulum ntulla necante.",
            "type": "video",
            "blog_categories": [
                {
                    "name": "Lifestyle",
                    "slug": "lifestyle"
                }
            ],
            "image": [
                {
                    "width": "376",
                    "height": "400",
                    "url": "/uploads/post_2_de8fd44ad3.jpg"
                }
            ]
        },
        {
            "id": 14,
            "author": "Jane Doe",
            "comments": "3",
            "content": null,
            "date": "2020-09-22",
            "slug": "utaliquam-sollicitudin-leo.",
            "title": "Utaliquam sollicitudin leo.",
            "type": "gallery",
            "blog_categories": [
                {
                    "name": "Fashion",
                    "slug": "fashion"
                },
                {
                    "name": "Lifestyle",
                    "slug": "lifestyle"
                }
            ],
            "image": [
                {
                    "width": "376",
                    "height": "400",
                    "url": "/uploads/post_3_8b69144778.jpg"
                },
                {
                    "width": "376",
                    "height": "400",
                    "url": "/uploads/post_8_c9ff034de1.jpg"
                }
            ]
        }
    ]
}